{
    "prepare_queue": {
        "installed": [],
        "uninstalled": []
    },
    "config_munge": {
        "files": {
            "config.xml": {
                "parents": {
                    "/*": []
                }
            }
        }
    },
    "installed_plugins": {
        "cordova-plugin-whitelist": {
            "PACKAGE_NAME": "com.accenture.help.crossplatformapp"
        },
        "com.shoety.cordova.plugin.inappbrowserxwalk": {
            "PACKAGE_NAME": "com.accenture.help.crossplatformapp"
        },
        "cordova-plugin-crosswalk-webview": {
            "PACKAGE_NAME": "com.accenture.help.crossplatformapp"
        }
    },
    "dependent_plugins": {},
    "modules": [
        {
            "file": "plugins/com.shoety.cordova.plugin.inappbrowserxwalk/www/inappbrowserxwalk.js",
            "id": "com.shoety.cordova.plugin.inappbrowserxwalk.inAppBrowserXwalk",
            "pluginId": "com.shoety.cordova.plugin.inappbrowserxwalk",
            "clobbers": [
                "inAppBrowserXwalk"
            ]
        }
    ],
    "plugin_metadata": {
        "cordova-plugin-whitelist": "1.2.2",
        "com.shoety.cordova.plugin.inappbrowserxwalk": "0.3.3",
        "cordova-plugin-crosswalk-webview": "2.0.0"
    }
}